index,#,Target,Range,Speed,Max,Comments
0,1,50,10,8,100,Intro
1,2,25,10,8,100,-
2,3,15,5,8,100,-
3,4,60,10,5,100,-
4,5,75,10,5,100,-
5,6,25,5,5,100,-
6,7,55,2,6,100,-
7,8,40,10,6,100,Edgy
8,9,15,5,3,100,-
9,10,90,5,5,100,-
10,11,10,2,5,100,-
11,12,50,5,3,100,-
12,13,43,5,8,100,-
13,14,50,1,8,100,-
14,15,55,10,2,100,Fast
15,16,75,5,3,100,-
16,17,45,3,2,100,-
17,18,95,3,2,100,-
18,19,50,2,2,100,-
19,20,25,2,3,100,-
20,21,40,1,2,100,-
21,22,55,2,6,100,Accuracy
22,23,25,2,6,100,-
23,24,75,2,5,100,-
24,25,15,2,5,100,-
25,26,60,1,4,100,-
26,27,35,1,4,100,-
27,28,80,1,3,100,-
28,29,42,1,2,100,-
29,30,99,1,1,100,-